^C:\USERS\HAPPY\DOWNLOADS\DOCUMENTS\VISUAL STUDIO 2010\PROJECTS\RANDOM_MAZE\RANDOM_MAZE\MAIN.CPP
/c /Zi /nologo /W3 /WX- /Od /Oy- /D WIN32 /D _DEBUG /D _WINDOWS /Gm /EHsc /RTC1 /MDd /GS /fp:precise /Zc:wchar_t /Zc:forScope /Fo"Debug\\" /Fd"Debug\vc100.pdb" /Gd /TP /analyze- /errorReport:prompt C:\USERS\HAPPY\DOWNLOADS\DOCUMENTS\VISUAL STUDIO 2010\PROJECTS\RANDOM_MAZE\RANDOM_MAZE\MAIN.CPP
^C:\USERS\HAPPY\DOWNLOADS\DOCUMENTS\VISUAL STUDIO 2010\PROJECTS\RANDOM_MAZE\RANDOM_MAZE\MAZE.CPP
/c /Zi /nologo /W3 /WX- /Od /Oy- /D WIN32 /D _DEBUG /D _WINDOWS /Gm /EHsc /RTC1 /MDd /GS /fp:precise /Zc:wchar_t /Zc:forScope /Fo"Debug\\" /Fd"Debug\vc100.pdb" /Gd /TP /analyze- /errorReport:prompt C:\USERS\HAPPY\DOWNLOADS\DOCUMENTS\VISUAL STUDIO 2010\PROJECTS\RANDOM_MAZE\RANDOM_MAZE\MAZE.CPP
^C:\USERS\HAPPY\DOWNLOADS\DOCUMENTS\VISUAL STUDIO 2010\PROJECTS\RANDOM_MAZE\RANDOM_MAZE\PLAYER.CPP
/c /Zi /nologo /W3 /WX- /Od /Oy- /D WIN32 /D _DEBUG /D _WINDOWS /Gm /EHsc /RTC1 /MDd /GS /fp:precise /Zc:wchar_t /Zc:forScope /Fo"Debug\\" /Fd"Debug\vc100.pdb" /Gd /TP /analyze- /errorReport:prompt C:\USERS\HAPPY\DOWNLOADS\DOCUMENTS\VISUAL STUDIO 2010\PROJECTS\RANDOM_MAZE\RANDOM_MAZE\PLAYER.CPP
